1
2
3
19,232,cpic cyp2c19 ultrarapid, 270, 294, 278, 262, 286
	242
	246
	250
	254
100, dpwg dpyd poor, 71, 95
101, 96, 72, dpwg dpyd intermediate
102, 147, 169, 73, 51, 172, 54, 175, 178, 153, 156, 150, 138, 159, 81, dpwg cyp2d6 poor, 60, 162, 63, 187, 184, 166, 181, 144, 45, 141
103, 148, 52, 173, 55, 74, 176, 154, 170, 151, 139, 82, 157, 61, 179, 188, dpwg cyp2d6 intermediate, 163, 160, 64, 167, 185, 182, 145, 46, 142
125, 128, 119, 136, 98, 79, 58, 109, 191, 122, dpwg cyp2c19 intermediate, 24
126, 110, 137, 129, 99, 80, 59, 192, 123, 25, dpwg cyp2c19 ultrarapid, 120
108, 124, 127, 135, 118, 97, 78, 57, dpwg cyp2c19 poor, 190, 105, 121, 23
111, 90, 66, 193, 85, 130, 200
	4
	5
	6
112, 91, 201, 194, 67, 86, 131
	10
	11
	12
113, 202, 87, 92, 195, 68, 132
	7
	8
	9
114, 203, 69, 88, 93, 196, 133
	13
	14
	15
115, 197, 204, 89, 94, 70, 134
	16
	17
	18
116
117
165, 210
198, 205
199, 206
20, 279, 263, 271, 233, 295, cpic cyp2c19 extensive, 287
	243
	247
	251
	255
21, 272, 264, 280, cpic cyp2c19 intermediate, 234, 296, 288
	244
	248
	252
	256
22, 289, 265, 273, cpic cyp2c19 poor, 281, 235, 297
	245
	249
	253
	257
26, 32, 29
28, 31, 34
207
208
209
211
212, 298
213, 219, 216
214, 217, 220
215, 218, 221
222
223, 308
224, 274, 266, 228, cpic cyp2d6 ultrarapid, 290, 282, 258, 41
	104, 146, 149, 168, dpwg cyp2d6 ultrarapid, 171, 53, 174, 56, 75, 177, 155, 152, 83, 158, 62, 65, 189, 186, 161, 164, 183, 180, 47, 143, 140
	242
	243
	244
	245
225, 275, 229, cpic cyp2d6 extensive, 291, 283, 267, 259, 42
	246
	247
	248
	249
226, 276, 292, cpic cyp2d6 intermediate, 284, 230, 43, 268, 260
	250
	251
	252
	253
227, 261, 293, 231, 44, 285, 269, cpic cyp2d6 poor, 277
	254
	255
	256
	257
236, 240, 306, 310, 238
237, 307, 311, 241, 239
299
35, 37, 39, dpwg tpmt intermediate
	27, 30, 33
36, 38, 40, dpwg tpmt poor
300
301
302
309
48
49
50
76
77
84
who class I
who class II
who class III
who class IV
	