<?xml version="1.0" encoding="UTF-8" standalone="no"?>
<!-- Created with Inkscape (http://www.inkscape.org/) -->

<svg
   xmlns:dc="http://purl.org/dc/elements/1.1/"
   xmlns:cc="http://creativecommons.org/ns#"
   xmlns:rdf="http://www.w3.org/1999/02/22-rdf-syntax-ns#"
   xmlns:svg="http://www.w3.org/2000/svg"
   xmlns="http://www.w3.org/2000/svg"
   xmlns:sodipodi="http://sodipodi.sourceforge.net/DTD/sodipodi-0.dtd"
   xmlns:inkscape="http://www.inkscape.org/namespaces/inkscape"
   width="206.24001"
   height="55.296093"
   id="svg2"
   version="1.1"
   inkscape:version="0.48.4 r9939"
   sodipodi:docname="Safety Code Logo 2014 - July.svg"
   inkscape:export-filename="C:\Users\polygonfenster\Documents\Workspace\Genomic CDS\design-and-resources\design\Safety Code Logo 2014 - July 246x51px.png"
   inkscape:export-xdpi="119.52386"
   inkscape:export-ydpi="119.52386">
  <defs
     id="defs4">
    <inkscape:path-effect
       effect="spiro"
       id="path-effect2881"
       is_visible="true" />
    <inkscape:perspective
       sodipodi:type="inkscape:persp3d"
       inkscape:vp_x="0 : 526.18109 : 1"
       inkscape:vp_y="0 : 1000 : 0"
       inkscape:vp_z="744.09448 : 526.18109 : 1"
       inkscape:persp3d-origin="372.04724 : 350.78739 : 1"
       id="perspective10" />
    <inkscape:perspective
       id="perspective2824"
       inkscape:persp3d-origin="0.5 : 0.33333333 : 1"
       inkscape:vp_z="1 : 0.5 : 1"
       inkscape:vp_y="0 : 1000 : 0"
       inkscape:vp_x="0 : 0.5 : 1"
       sodipodi:type="inkscape:persp3d" />
    <inkscape:perspective
       id="perspective2838"
       inkscape:persp3d-origin="0.5 : 0.33333333 : 1"
       inkscape:vp_z="1 : 0.5 : 1"
       inkscape:vp_y="0 : 1000 : 0"
       inkscape:vp_x="0 : 0.5 : 1"
       sodipodi:type="inkscape:persp3d" />
    <inkscape:perspective
       id="perspective2863"
       inkscape:persp3d-origin="0.5 : 0.33333333 : 1"
       inkscape:vp_z="1 : 0.5 : 1"
       inkscape:vp_y="0 : 1000 : 0"
       inkscape:vp_x="0 : 0.5 : 1"
       sodipodi:type="inkscape:persp3d" />
    <inkscape:perspective
       id="perspective2841"
       inkscape:persp3d-origin="0.5 : 0.33333333 : 1"
       inkscape:vp_z="1 : 0.5 : 1"
       inkscape:vp_y="0 : 1000 : 0"
       inkscape:vp_x="0 : 0.5 : 1"
       sodipodi:type="inkscape:persp3d" />
    <inkscape:perspective
       id="perspective2855"
       inkscape:persp3d-origin="0.5 : 0.33333333 : 1"
       inkscape:vp_z="1 : 0.5 : 1"
       inkscape:vp_y="0 : 1000 : 0"
       inkscape:vp_x="0 : 0.5 : 1"
       sodipodi:type="inkscape:persp3d" />
    <inkscape:perspective
       id="perspective3651"
       inkscape:persp3d-origin="0.5 : 0.33333333 : 1"
       inkscape:vp_z="1 : 0.5 : 1"
       inkscape:vp_y="0 : 1000 : 0"
       inkscape:vp_x="0 : 0.5 : 1"
       sodipodi:type="inkscape:persp3d" />
    <inkscape:perspective
       id="perspective3902"
       inkscape:persp3d-origin="0.5 : 0.33333333 : 1"
       inkscape:vp_z="1 : 0.5 : 1"
       inkscape:vp_y="0 : 1000 : 0"
       inkscape:vp_x="0 : 0.5 : 1"
       sodipodi:type="inkscape:persp3d" />
    <inkscape:path-effect
       effect="spiro"
       id="path-effect2881-6"
       is_visible="true" />
    <inkscape:perspective
       id="perspective3999"
       inkscape:persp3d-origin="0.5 : 0.33333333 : 1"
       inkscape:vp_z="1 : 0.5 : 1"
       inkscape:vp_y="0 : 1000 : 0"
       inkscape:vp_x="0 : 0.5 : 1"
       sodipodi:type="inkscape:persp3d" />
    <inkscape:path-effect
       effect="spiro"
       id="path-effect2881-6-3"
       is_visible="true" />
    <inkscape:perspective
       id="perspective4096"
       inkscape:persp3d-origin="0.5 : 0.33333333 : 1"
       inkscape:vp_z="1 : 0.5 : 1"
       inkscape:vp_y="0 : 1000 : 0"
       inkscape:vp_x="0 : 0.5 : 1"
       sodipodi:type="inkscape:persp3d" />
    <inkscape:path-effect
       effect="spiro"
       id="path-effect2881-6-3-1"
       is_visible="true" />
    <inkscape:path-effect
       effect="spiro"
       id="path-effect2881-6-0"
       is_visible="true" />
    <inkscape:perspective
       id="perspective4096-7"
       inkscape:persp3d-origin="0.5 : 0.33333333 : 1"
       inkscape:vp_z="1 : 0.5 : 1"
       inkscape:vp_y="0 : 1000 : 0"
       inkscape:vp_x="0 : 0.5 : 1"
       sodipodi:type="inkscape:persp3d" />
    <inkscape:path-effect
       effect="spiro"
       id="path-effect2881-6-3-9"
       is_visible="true" />
    <inkscape:path-effect
       effect="spiro"
       id="path-effect2881-6-6"
       is_visible="true" />
    <inkscape:perspective
       id="perspective3042"
       inkscape:persp3d-origin="0.5 : 0.33333333 : 1"
       inkscape:vp_z="1 : 0.5 : 1"
       inkscape:vp_y="0 : 1000 : 0"
       inkscape:vp_x="0 : 0.5 : 1"
       sodipodi:type="inkscape:persp3d" />
    <inkscape:path-effect
       effect="spiro"
       id="path-effect2881-6-1"
       is_visible="true" />
    <inkscape:perspective
       id="perspective3007"
       inkscape:persp3d-origin="0.5 : 0.33333333 : 1"
       inkscape:vp_z="1 : 0.5 : 1"
       inkscape:vp_y="0 : 1000 : 0"
       inkscape:vp_x="0 : 0.5 : 1"
       sodipodi:type="inkscape:persp3d" />
    <inkscape:perspective
       id="perspective3021"
       inkscape:persp3d-origin="0.5 : 0.33333333 : 1"
       inkscape:vp_z="1 : 0.5 : 1"
       inkscape:vp_y="0 : 1000 : 0"
       inkscape:vp_x="0 : 0.5 : 1"
       sodipodi:type="inkscape:persp3d" />
    <clipPath
       clipPathUnits="userSpaceOnUse"
       id="clipPath3952">
      <rect
         rx="0.36463657"
         y="122.00426"
         x="-169.14017"
         height="16.257668"
         width="7.0500002"
         id="rect3954"
         style="fill:#b3b3b3;fill-opacity:1;stroke:none"
         transform="scale(-1,1)" />
    </clipPath>
  </defs>
  <sodipodi:namedview
     id="base"
     pagecolor="#ffffff"
     bordercolor="#666666"
     borderopacity="1.0"
     inkscape:pageopacity="1"
     inkscape:pageshadow="2"
     inkscape:zoom="2.7115869"
     inkscape:cx="116.76495"
     inkscape:cy="22.333727"
     inkscape:document-units="px"
     inkscape:current-layer="layer1"
     showgrid="false"
     inkscape:window-width="1298"
     inkscape:window-height="745"
     inkscape:window-x="221"
     inkscape:window-y="1042"
     inkscape:window-maximized="1"
     showguides="true"
     inkscape:guide-bbox="true"
     fit-margin-top="10"
     fit-margin-left="4"
     fit-margin-right="10"
     fit-margin-bottom="10" />
  <metadata
     id="metadata7">
    <rdf:RDF>
      <cc:Work
         rdf:about="">
        <dc:format>image/svg+xml</dc:format>
        <dc:type
           rdf:resource="http://purl.org/dc/dcmitype/StillImage" />
        <dc:title></dc:title>
      </cc:Work>
    </rdf:RDF>
  </metadata>
  <g
     inkscape:label="Layer 1"
     inkscape:groupmode="layer"
     id="layer1"
     transform="translate(-108.85204,-141.59314)"
     style="display:inline">
    <path
       style="color:#000000;fill:#ffffff;fill-opacity:1;stroke:#4c8bb3;stroke-width:1.01120245000000010;stroke-linejoin:miter;stroke-miterlimit:4;stroke-opacity:1;stroke-dashoffset:0;marker:none;visibility:visible;display:inline;overflow:visible;enable-background:accumulate"
       d="m 132.04853,152.38486 166.72251,0 c 3.12791,0 5.2425,3.07335 4.74123,6.89091 l -1.65679,12.61793 c -0.50126,3.81755 -3.42294,6.8909 -6.55085,6.8909 l -165.2916,0 c -4.07618,0 -10.73132,-4.08607 -10.65464,-12.54644 l 0.0113,-1.24674 c 0.0847,-9.32702 5.72952,-12.70911 11.7102,-12.60656 z"
       id="rect2852-8-9-4-2"
       inkscape:connector-curvature="0"
       sodipodi:nodetypes="cssssssssc" />
    <path
       inkscape:connector-curvature="0"
       style="color:#000000;fill:#4c8bb3;fill-opacity:1;fill-rule:nonzero;stroke:#4c8bb3;stroke-width:0.18509708000000000;stroke-linejoin:miter;stroke-miterlimit:4;stroke-opacity:1;stroke-dasharray:none;stroke-dashoffset:0;marker:none;visibility:visible;display:inline;overflow:visible;enable-background:accumulate"
       d="m 130.01587,173.60992 c -6.12889,-2.08816 -7.97675,-10.00703 -3.42095,-14.6603 0.55321,-0.56617 1.50873,-1.28637 2.12231,-1.60156 1.94809,-1.00097 2.82242,-1.08887 10.29545,-1.0346 l 6.76918,0.0491 -0.0693,8.86064 -0.0693,8.86059 -7.31424,-0.0667 c -6.47123,-0.059 -7.42936,-0.10601 -8.31312,-0.40714 z"
       id="path2885-0-2-8-4"
       inkscape:export-filename="C:\Users\m\Documents\dev\safety-tag\Graphics\Safety_Code_CAMDA_showcase.png"
       inkscape:export-xdpi="90"
       inkscape:export-ydpi="90" />
    <path
       inkscape:connector-curvature="0"
       id="rect2877-7-4-8-5"
       style="color:#000000;fill:none;stroke:#4c8bb3;stroke-width:1.06351554000000000;marker:none;visibility:visible;display:inline;overflow:visible;enable-background:accumulate;stroke-opacity:1"
       d="m 132.292,156.03344 25.22437,0.21365 c 4.65813,0.0395 8.37895,4.1514 8.34266,9.21962 -0.0362,5.06823 -3.81545,9.11667 -8.47358,9.07721 l -25.22436,-0.21363 c -4.65811,-0.0395 -8.37894,-4.15142 -8.34268,-9.21965 0.0362,-5.06826 3.81546,-9.11666 8.47359,-9.0772 z"
       inkscape:export-filename="C:\Users\m\Documents\dev\safety-tag\Graphics\Safety_Code_CAMDA_showcase.png"
       inkscape:export-xdpi="90"
       inkscape:export-ydpi="90" />
    <path
       style="fill:#241c1e;fill-opacity:1;stroke:#4c8bb3;stroke-width:0.82321476999999998px;stroke-linecap:butt;stroke-linejoin:miter;stroke-opacity:1;display:inline"
       d="m 172.2089,152.00475 -4.33953,26.79599"
       id="path3948-2-5"
       inkscape:connector-curvature="0" />
    <path
       style="fill:#4c8bb3;fill-opacity:1;stroke:#4c8bb3;stroke-width:0.37911779;stroke-miterlimit:4;stroke-opacity:1;stroke-dasharray:none;display:inline"
       d="m 168.50642,178.09585 c 0,-0.24067 0.64837,-6.01398 1.44083,-12.82958 0.79244,-6.81561 1.44083,-12.47683 1.44083,-12.58051 0,-0.10363 29.11912,-0.18849 64.70914,-0.18849 l 64.70919,0 1.08863,1.52626 c 1.36901,1.91939 1.39683,3.17415 0.27827,12.553 -0.89882,7.5365 -1.56488,9.557 -3.66724,11.12488 -1.0756,0.80216 -3.42869,0.83202 -65.55765,0.83202 -41.63617,0 -64.442,-0.15487 -64.442,-0.43758 z"
       id="path3990-1"
       inkscape:connector-curvature="0" />
    <text
       inkscape:export-ydpi="90"
       inkscape:export-xdpi="90"
       inkscape:export-filename="C:\Users\m\Documents\dev\safety-tag\Graphics\Safety_Code_CAMDA_showcase.png"
       id="text3027-7"
       y="171.96056"
       x="165.76038"
       style="font-size:26.74374008px;font-style:normal;font-variant:normal;font-weight:normal;font-stretch:normal;fill:#ffffff;fill-opacity:1;stroke:none;display:inline;font-family:Calibri;-inkscape-font-specification:Calibri"
       xml:space="preserve"
       transform="matrix(0.99510825,0,0.04093146,1.0049158,0,0)"><tspan
         style="font-style:italic;font-variant:normal;font-weight:bold;font-stretch:normal;fill:#ffffff;fill-opacity:1;stroke:none;font-family:Calibri;-inkscape-font-specification:Calibri Bold Italic"
         y="171.96056"
         x="165.76038"
         id="tspan3029-1"
         sodipodi:role="line">safety-code<tspan
   id="tspan3031-1"
   style="font-weight:normal;fill:#ffffff;fill-opacity:1;stroke:none;-inkscape-font-specification:Calibri Italic" /></tspan></text>
    <text
       xml:space="preserve"
       style="font-size:10px;font-style:normal;font-variant:normal;font-weight:normal;font-stretch:normal;line-height:125%;letter-spacing:0px;word-spacing:0px;fill:#4c8bb3;fill-opacity:1;stroke:none;font-family:Calibri;-inkscape-font-specification:Calibri"
       x="125.53258"
       y="188.31548"
       id="text3879"
       sodipodi:linespacing="125%"
       inkscape:transform-center-x="-21.698113"
       inkscape:transform-center-y="9.6698113"><tspan
         sodipodi:role="line"
         id="tspan3881"
         x="125.53258"
         y="188.31548"
         style="font-size:11px;font-style:oblique;font-weight:bold;fill:#4c8bb3;fill-opacity:1;-inkscape-font-specification:Calibri Bold Oblique"><tspan
   style="font-weight:normal;-inkscape-font-specification:Calibri Oblique"
   id="tspan3018">The</tspan> Medication Safety Code <tspan
   style="font-weight:normal;-inkscape-font-specification:Calibri Oblique"
   id="tspan3020">initiative</tspan></tspan></text>
    <path
       style="fill:#ffffff;fill-opacity:1;stroke:#ffffff;stroke-width:0.20283976;stroke-miterlimit:4;stroke-opacity:1;stroke-dasharray:none"
       d="m 37.678482,32.186859 -0.659229,-0.08181 -4.9e-5,-8.455708 -5e-5,-8.455708 3.296195,0.04966 c 10.656584,0.160556 9.885108,0.112078 11.149759,0.700636 4.347548,2.023315 6.126964,7.596388 3.848265,12.052646 -0.582588,1.13932 -1.930716,2.595916 -2.961937,3.200252 -1.716263,1.005798 -2.76262,1.139685 -8.630378,1.104302 -2.960841,-0.01785 -5.68,-0.06928 -6.042576,-0.114272 z"
       id="path3063"
       inkscape:connector-curvature="0"
       transform="translate(108.85204,141.59314)" />
    <path
       style="fill:#4c8bb3;fill-opacity:1;stroke:#ffffff;stroke-width:0.7;stroke-miterlimit:4;stroke-opacity:1;stroke-dasharray:none"
       d="m 143.64629,158.57984 c -0.14705,0 -0.23919,1.82343 -0.28125,4.3125 -2.57184,0.0394 -4.5,0.16232 -4.5,0.3125 l 0,3.6875 c 0,0.15018 1.92822,0.24188 4.5,0.28125 0.0374,2.62958 0.12889,4.59375 0.28125,4.59375 l 3.6875,0 c 0.15236,0 0.27512,-1.96417 0.3125,-4.59375 2.55144,-0.0401 4.4375,-0.13184 4.4375,-0.28125 l 0,-3.6875 c 0,-0.14941 -1.886,-0.27245 -4.4375,-0.3125 -0.0421,-2.48907 -0.16545,-4.3125 -0.3125,-4.3125 l -3.6875,0 z"
       id="rect3022-11"
       inkscape:connector-curvature="0" />
  </g>
</svg>
